%YAML 1.1
%TAG !u! tag:unity3d.com,2011:
--- !u!114 &11400000
MonoBehaviour:
  m_ObjectHideFlags: 0
  m_CorrespondingSourceObject: {fileID: 0}
  m_PrefabInstance: {fileID: 0}
  m_PrefabAsset: {fileID: 0}
  m_GameObject: {fileID: 0}
  m_Enabled: 1
  m_EditorHideFlags: 0
  m_Script: {fileID: 11500000, guid: ebc8de8875fc19b2c893aeac1d5400b3, type: 3}
  m_Name: Repeat Bullet Patterns 1
  m_EditorClassIdentifier: 
  repeatCount: 1
  bulletPatterns:
  - {fileID: 11400000, guid: cc894a13a772d7f498dd060d0eac3a3c, type: 2}
  - {fileID: 11400000, guid: a5f7a70ce13f176418a5fb61a4b6272b, type: 2}
  - {fileID: 11400000, guid: 10be3e0a8227668469d3b3e67e89f2b0, type: 2}
  - {fileID: 11400000, guid: 44a40ccc98e0bcd4383891efdaa7f74e, type: 2}
